<?xml version="1.0" encoding="utf-8"?>
<!-- Generator: Adobe Illustrator 16.0.0, SVG Export Plug-In . SVG Version: 6.00 Build 0)  -->
<!DOCTYPE svg PUBLIC "-//W3C//DTD SVG 1.1//EN" "http://www.w3.org/Graphics/SVG/1.1/DTD/svg11.dtd">
<svg version="1.1" id="Livello_1" xmlns="http://www.w3.org/2000/svg" xmlns:xlink="http://www.w3.org/1999/xlink" x="0px" y="0px"
	 width="403.78px" height="404.583px" viewBox="0 0 403.78 404.583" enable-background="new 0 0 403.78 404.583"
	 xml:space="preserve">
<path fill="#9BD6E1" d="M403.195,202.01c0,111.125-90.08,201.21-201.21,201.21c-111.121,0-201.202-90.085-201.202-201.21
	C0.783,90.884,90.864,0.802,201.985,0.802C313.115,0.802,403.195,90.884,403.195,202.01z"/>
<g>
	<path fill="#FFFFFF" d="M296.147,145.043c-6.974,3.094-14.47,5.188-22.337,6.127c8.028-4.816,14.196-12.435,17.1-21.519
		c-7.515,4.457-15.839,7.696-24.699,9.437c-7.095-7.56-17.204-12.282-28.389-12.282c-21.481,0-38.896,17.417-38.896,38.894
		c0,3.051,0.344,6.018,1.007,8.864c-32.327-1.623-60.983-17.105-80.168-40.64c-3.35,5.746-5.269,12.428-5.269,19.557
		c0,13.493,6.866,25.398,17.305,32.373c-6.38-0.201-12.372-1.953-17.617-4.865c-0.003,0.163-0.003,0.325-0.003,0.49
		c0,18.844,13.409,34.564,31.2,38.138c-3.266,0.886-6.7,1.365-10.25,1.365c-2.505,0-4.941-0.243-7.318-0.7
		c4.95,15.454,19.318,26.696,36.337,27.01c-13.313,10.433-30.085,16.653-48.306,16.653c-3.146,0-6.238-0.182-9.282-0.547
		c17.215,11.037,37.656,17.479,59.624,17.479c71.546,0,110.665-59.267,110.665-110.669c0-1.684-0.039-3.362-0.113-5.032
		C284.342,159.694,290.938,152.845,296.147,145.043L296.147,145.043z M296.147,145.043"/>
</g>
</svg>
